[
  {
    "loanProductCode": "S01",
    "name": "Agricultural and Forest Related",
    "nameNp": "s[lif tyf jg ;DaGwL"
  },
  {
    "loanProductCode": "S02",
    "name": "Fishery Related",
    "nameNp": "df5f kfng ;DjGwL"
  },
  {
    "loanProductCode": "S03",
    "name": "Mining Related",
    "nameNp": "vfgL ;DjGwL"
  },
  {
    "loanProductCode": "S04",
    "name": "Agriculture, Forestry And Bevarage  Production  Related",
    "nameNp": "s[lif tyf jg tyf k]o kbfy{ pTkfbg ;DaGwL"
  },
  {
    "loanProductCode": "S05",
    "name": "Non-food Production Related",
    "nameNp": "u}/ vfB j:t' pTkfbg ;DjGwL"
  },
  {
    "loanProductCode": "S06",
    "name": "Construction",
    "nameNp": "lgdf{0f"
  },
  {
    "loanProductCode": "S07",
    "name": "Power, Gas and Water",
    "nameNp": "ljB't, UofF; / kfgL"
  },
  {
    "loanProductCode": "S08",
    "name": "Metal Products, Machinary & Electronic Equipment & Assemblage",
    "nameNp": "wft'sf pTkfbgx?, d];g/L tyf O{n]S6«f]lgs cf}hf/ tyf h8fg"
  },
  {
    "loanProductCode": "S09",
    "name": "Transport, Communication and Public Utilities",
    "nameNp": "oftfoft, e08f/ / ;+rf/"
  },
  {
    "loanProductCode": "S10",
    "name": "Wholesaler & Retailer",
    "nameNp": "yf]s tyf v'b|f laqm]tf"
  },
  {
    "loanProductCode": "S11",
    "name": "Finance, Insurance and Real Estate",
    "nameNp": "ljQ, ljdf tyf crn ;DkQL"
  },
  {
    "loanProductCode": "S12",
    "name": "Hotel or Restaurant",
    "nameNp": "ko{6g ;]jf"
  },
  {
    "loanProductCode": "S13",
    "name": "Other Services",
    "nameNp": "cGo ;]jfx?"
  },
  {
    "loanProductCode": "S14",
    "name": "Consumption Loans",
    "nameNp": "pkef]Uo shf{"
  },
  {
    "loanProductCode": "S15",
    "name": "Local Government",
    "nameNp": ":yfgLo ;/sf/"
  },
  {
    "loanProductCode": "S16",
    "name": "Others",
    "nameNp": "cGo"
  }
]